<svg width="14" height="14" viewBox="0 0 14 14" fill="none" xmlns="http://www.w3.org/2000/svg">
<path d="M7 4C7.55249 4 8 3.40334 8 2.66666C8 2.41666 7.9475 2.18 7.8575 1.98L7 0L6.1425 1.98C6.0525 2.18 6 2.41666 6 2.66666C6 3.40334 6.44751 4 7 4Z" fill="#F2C94C"/>
<path d="M10.9945 5.57466H7.66296V4.30768H6.33036V5.57466H2.99889C1.89616 5.57466 1 6.42669 1 7.47512V8.45067C1 9.13484 1.58633 9.69229 2.30593 9.69229C2.65574 9.69229 2.98221 9.56244 3.22876 9.32803L4.65463 7.97553L6.07718 9.32485C6.57025 9.79364 7.42978 9.79364 7.92282 9.32485L9.34868 7.97553L10.7712 9.32485C11.0178 9.55923 11.3443 9.68912 11.6941 9.68912C12.4137 9.68912 13 9.13166 13 8.4475V7.47512C12.9933 6.42669 12.0972 5.57466 10.9945 5.57466Z" fill="#F2C94C"/>
<path d="M10.0634 9.43183L9.34671 8.61542L8.62671 9.43183C7.75671 10.4229 6.2367 10.4229 5.3667 9.43183L4.65001 8.61542L3.93001 9.43183C3.50001 9.92927 2.92335 10.2027 2.30666 10.2027C1.82331 10.2027 1.37331 10.028 1 9.73561V13.2406C1 13.6583 1.3 14 1.66666 14H12.3333C12.7 14 13 13.6583 13 13.2406V9.73564C12.6267 10.028 12.18 10.2027 11.6933 10.2027C11.0767 10.2027 10.5 9.92931 10.0634 9.43183Z" fill="#F2C94C"/>
</svg>
